{
    "plugins": [
        "back-to-top-button",
        "glossary-tooltip",
        "codeblock-disable-glossary"
    ],
    "language": "en",
    "pluginsConfig": {
        "fontsettings": {
            "theme": "white",
            "family": "sans",
            "size": 4
        },
        "glossary-tooltip":{
            "parseGlossaryItems": false
        }
    }
}
